[
    {
        "@id": "http://kuleuven.com/bf3b1809-568c-4e41-91bd-63d50e469e43",
        "http://kuleuven.com/WorkDirective_ID": "b5e323c4-4e32-48a2-8c5b-8be7270f3fc8",
        "http://kuleuven.com/JobOrderGraph_ID": "cca7ff2e-0bd0-4175-b7a7-13552e4383f1",
        "http://kuleuven.com/JobOrder_Name": "JobOrder0",
        "http://kuleuven.com/WorkDirective_Name": "Pick_ThreeFinger",
        "http://kuleuven.com/JobOrderGraph_Name": "JobOrders_MakeBoth"
    },
    {
        "@id": "http://kuleuven.com/ec8dc169-df08-4ecb-815b-1d28b13e54b1",
        "http://kuleuven.com/WorkDirective_ID": "463ae2c3-8582-4350-a3bf-f7a238556fd6",
        "http://kuleuven.com/JobOrderGraph_ID": "cca7ff2e-0bd0-4175-b7a7-13552e4383f1",
        "http://kuleuven.com/JobOrder_Name": "JobOrder1",
        "http://kuleuven.com/WorkDirective_Name": "Insert_Rotor2_1",
        "http://kuleuven.com/JobOrderGraph_Name": "JobOrders_MakeBoth",
        "http://kuleuven.com/needs_precond": [
            {
                "@id": "http://kuleuven.com/bf3b1809-568c-4e41-91bd-63d50e469e43",
                "http://kuleuven.com/JobOrder_Name": "JobOrder0"
            }
        ]
    },
    {
        "@id": "http://kuleuven.com/c71fc602-d4f7-4512-95ed-2b9340896724",
        "http://kuleuven.com/WorkDirective_ID": "21cc9b9b-bc3f-4e10-9507-c18747b31e3b",
        "http://kuleuven.com/JobOrderGraph_ID": "cca7ff2e-0bd0-4175-b7a7-13552e4383f1",
        "http://kuleuven.com/JobOrder_Name": "JobOrder2",
        "http://kuleuven.com/WorkDirective_Name": "Insert_Rotor1_1",
        "http://kuleuven.com/JobOrderGraph_Name": "JobOrders_MakeBoth",
        "http://kuleuven.com/needs_precond": [
            {
                "@id": "http://kuleuven.com/ec8dc169-df08-4ecb-815b-1d28b13e54b1",
                "http://kuleuven.com/JobOrder_Name": "JobOrder1"
            }
        ]
    },
    {
        "@id": "http://kuleuven.com/c0eaf841-78fc-4de0-ae73-4d6c04fbfdc4",
        "http://kuleuven.com/WorkDirective_ID": "67168200-ebe2-4435-b399-de0227960727",
        "http://kuleuven.com/JobOrderGraph_ID": "cca7ff2e-0bd0-4175-b7a7-13552e4383f1",
        "http://kuleuven.com/JobOrder_Name": "JobOrder8",
        "http://kuleuven.com/WorkDirective_Name": "Insert_Rotor2_2",
        "http://kuleuven.com/JobOrderGraph_Name": "JobOrders_MakeBoth",
        "http://kuleuven.com/needs_precond": [
            {
                "@id": "http://kuleuven.com/c71fc602-d4f7-4512-95ed-2b9340896724",
                "http://kuleuven.com/JobOrder_Name": "JobOrder2"
            }
        ]
    },
    {
        "@id": "http://kuleuven.com/7d45483c-3315-4ed3-88d4-a75189f69d39",
        "http://kuleuven.com/WorkDirective_ID": "1573aa17-c229-429a-a242-d9f1b0588c3a",
        "http://kuleuven.com/JobOrderGraph_ID": "cca7ff2e-0bd0-4175-b7a7-13552e4383f1",
        "http://kuleuven.com/JobOrder_Name": "JobOrder9",
        "http://kuleuven.com/WorkDirective_Name": "Insert_Rotor1_2",
        "http://kuleuven.com/JobOrderGraph_Name": "JobOrders_MakeBoth",
        "http://kuleuven.com/needs_precond": [
            {
                "@id": "http://kuleuven.com/c0eaf841-78fc-4de0-ae73-4d6c04fbfdc4",
                "http://kuleuven.com/JobOrder_Name": "JobOrder8"
            }
        ]
    },
    {
        "@id": "http://kuleuven.com/70c24c00-cc4d-4ed9-abc6-bacb3507c0ad",
        "http://kuleuven.com/WorkDirective_ID": "b04fe2a5-fff0-4eb3-a796-210fc4dcdf87",
        "http://kuleuven.com/JobOrderGraph_ID": "cca7ff2e-0bd0-4175-b7a7-13552e4383f1",
        "http://kuleuven.com/JobOrder_Name": "JobOrder3",
        "http://kuleuven.com/WorkDirective_Name": "Drop_ThreeFinger",
        "http://kuleuven.com/JobOrderGraph_Name": "JobOrders_MakeBoth",
        "http://kuleuven.com/needs_precond": [
            {
                "@id": "http://kuleuven.com/7d45483c-3315-4ed3-88d4-a75189f69d39",
                "http://kuleuven.com/JobOrder_Name": "JobOrder9"
            }
        ]
    },
    {
        "@id": "http://kuleuven.com/45a4125b-b942-4707-963c-49773c5df413",
        "http://kuleuven.com/WorkDirective_ID": "171415b4-b22c-4462-a489-b5f68b94f1e6",
        "http://kuleuven.com/JobOrderGraph_ID": "cca7ff2e-0bd0-4175-b7a7-13552e4383f1",
        "http://kuleuven.com/JobOrder_Name": "JobOrder4",
        "http://kuleuven.com/WorkDirective_Name": "Pick_Parallell",
        "http://kuleuven.com/JobOrderGraph_Name": "JobOrders_MakeBoth"

    },
    {
        "@id": "http://kuleuven.com/afee785e-ef40-407b-9b1f-5c600a0a56b1",
        "http://kuleuven.com/WorkDirective_ID": "e254104f-9dbf-4313-8b8b-0679169398c7",
        "http://kuleuven.com/JobOrderGraph_ID": "cca7ff2e-0bd0-4175-b7a7-13552e4383f1",
        "http://kuleuven.com/JobOrder_Name": "JobOrder5",
        "http://kuleuven.com/WorkDirective_Name": "Insert_Bearinghousing_1",
        "http://kuleuven.com/JobOrderGraph_Name": "JobOrders_MakeBoth",
        "http://kuleuven.com/needs_precond": [
            {
                "@id": "http://kuleuven.com/45a4125b-b942-4707-963c-49773c5df413",
                "http://kuleuven.com/JobOrder_Name": "JobOrder4"
            }
        ]
    },
    {
        "@id": "http://kuleuven.com/4325a072-9df8-4ef2-83d4-62d72992733a",
        "http://kuleuven.com/WorkDirective_ID": "17be8f27-f06d-4c03-942c-d27c3cc11888",
        "http://kuleuven.com/JobOrderGraph_ID": "cca7ff2e-0bd0-4175-b7a7-13552e4383f1",
        "http://kuleuven.com/JobOrder_Name": "JobOrder12",
        "http://kuleuven.com/WorkDirective_Name": "Insert_Bearinghousing_2",
        "http://kuleuven.com/JobOrderGraph_Name": "JobOrders_MakeBoth",
        "http://kuleuven.com/needs_precond": [
            {
                "@id": "http://kuleuven.com/afee785e-ef40-407b-9b1f-5c600a0a56b1",
                "http://kuleuven.com/JobOrder_Name": "JobOrder5"
            }
        ]
    },
    {
        "@id": "http://kuleuven.com/f21b8eba-a55d-4d37-8c66-cf9463b12f74",
        "http://kuleuven.com/WorkDirective_ID": "3cb12838-1e91-4edb-af7d-6b439a603e97",
        "http://kuleuven.com/JobOrderGraph_ID": "cca7ff2e-0bd0-4175-b7a7-13552e4383f1",
        "http://kuleuven.com/JobOrder_Name": "JobOrder6",
        "http://kuleuven.com/WorkDirective_Name": "Drop_Parallell",
        "http://kuleuven.com/JobOrderGraph_Name": "JobOrders_MakeBoth",
        "http://kuleuven.com/needs_precond": [
            {
                "@id": "http://kuleuven.com/4325a072-9df8-4ef2-83d4-62d72992733a",
                "http://kuleuven.com/JobOrder_Name": "JobOrder12"
            }
        ]
    }
]
